%YAML 1.1
%TAG !u! tag:unity3d.com,2011:
--- !u!114 &11400000
MonoBehaviour:
  m_ObjectHideFlags: 0
  m_CorrespondingSourceObject: {fileID: 0}
  m_PrefabInstance: {fileID: 0}
  m_PrefabAsset: {fileID: 0}
  m_GameObject: {fileID: 0}
  m_Enabled: 1
  m_EditorHideFlags: 0
  m_Script: {fileID: 11500000, guid: 1a757b18c3c244678867fb73dcbe94ac, type: 3}
  m_Name: BallSettings
  m_EditorClassIdentifier: 
  maxVelocity: {x: 100, y: 60}
  minVelocity: {x: 0, y: 0}
  flatVelocityIncrease: 1
  minGravity: 0.5
  maxGravity: 1.5
  yVelocityGravityFactor: 1
  colors:
  - {r: 1, g: 0, b: 0, a: 1}
  - {r: 0, g: 1, b: 0, a: 1}
  - {r: 0, g: 0, b: 1, a: 1}
